{
    "total":100,
    "per_page": 8,
    "pages": 5,
    "current_page": 1,
    "data": [{
        "id": "161",
        "froms": "2",
        "name": "\u548c\u81ea\u7136\u754c\u6709\u5173\u7684\u5b57\u6e90",
        "title": "\u548c\u81ea\u7136\u754c\u6709\u5173\u7684\u5b57\u6e90",
        "cate_id": "36",
        "cate_child": "37",
        "img": "http:\/\/w2.mamawozaizhe.com:9001\/video\/161\/1545064803.jpg",
        "subtime": "2018-12-18",
        "excellent": "0",
        "special": "0",
        "teacher_name": "\u5f18\u6bc5\u6559\u80b2",
        "school_name": "\u4f18\u4f18\u5728\u7ebf\u6559\u5b66\u8d44\u6e90"
    }, {
        "id": "160",
        "froms": "2",
        "name": "\u548c\u52a8\u690d\u7269\u6709\u5173",
        "title": "\u548c\u52a8\u690d\u7269\u6709\u5173",
        "cate_id": "36",
        "cate_child": "37",
        "img": "http:\/\/w2.mamawozaizhe.com:9001\/video\/160\/1545063333.jpg",
        "subtime": "2018-12-18",
        "excellent": "0",
        "special": "0",
        "teacher_name": "\u5f18\u6bc5\u6559\u80b2",
        "school_name": "\u4f18\u4f18\u5728\u7ebf\u6559\u5b66\u8d44\u6e90"
    }, {
        "id": "159",
        "froms": "2",
        "name": "\u548c\u5668\u7269\u7528\u5177\u6709\u5173",
        "title": "\u548c\u5668\u7269\u7528\u5177\u6709\u5173\u7684\u6c49\u5b57\u662f\u600e\u4e48\u521b\u9020\u51fa\u6765\u7684\u5462\uff0c\u770b\u5b8c\u89c6\u9891\uff0c\u4f60\u5c31\u4f1a\u4e86\u89e3\u5f88\u591a\u4e86",
        "cate_id": "36",
        "cate_child": "37",
        "img": "http:\/\/w2.mamawozaizhe.com:9001\/video\/159\/1545061273.jpg",
        "subtime": "2018-12-17",
        "excellent": "0",
        "special": "0",
        "teacher_name": "\u5f18\u6bc5\u6559\u80b2",
        "school_name": "\u4f18\u4f18\u5728\u7ebf\u6559\u5b66\u8d44\u6e90"
    }, {
        "id": "158",
        "froms": "2",
        "name": "\u548c\u4eba\u7684\u8eab\u4f53\u6709\u5173",
        "title": "\u548c\u4eba\u7684\u8eab\u4f53\u6709\u5173\uff0c\u5171\u8ba151\u4e2a\u89c6\u9891\u3002",
        "cate_id": "36",
        "cate_child": "37",
        "img": "http:\/\/w2.mamawozaizhe.com:9001\/video\/158\/1545059112.jpg",
        "subtime": "2018-12-17",
        "excellent": "0",
        "special": "0",
        "teacher_name": "\u5f18\u6bc5\u6559\u80b2",
        "school_name": "\u4f18\u4f18\u5728\u7ebf\u6559\u5b66\u8d44\u6e90"
    },{
        "id": "161",
        "froms": "2",
        "name": "\u548c\u81ea\u7136\u754c\u6709\u5173\u7684\u5b57\u6e90",
        "title": "\u548c\u81ea\u7136\u754c\u6709\u5173\u7684\u5b57\u6e90",
        "cate_id": "36",
        "cate_child": "37",
        "img": "http:\/\/w2.mamawozaizhe.com:9001\/video\/161\/1545064803.jpg",
        "subtime": "2018-12-18",
        "excellent": "0",
        "special": "0",
        "teacher_name": "\u5f18\u6bc5\u6559\u80b2",
        "school_name": "\u4f18\u4f18\u5728\u7ebf\u6559\u5b66\u8d44\u6e90"
    }, {
        "id": "160",
        "froms": "2",
        "name": "\u548c\u52a8\u690d\u7269\u6709\u5173",
        "title": "\u548c\u52a8\u690d\u7269\u6709\u5173",
        "cate_id": "36",
        "cate_child": "37",
        "img": "http:\/\/w2.mamawozaizhe.com:9001\/video\/160\/1545063333.jpg",
        "subtime": "2018-12-18",
        "excellent": "0",
        "special": "0",
        "teacher_name": "\u5f18\u6bc5\u6559\u80b2",
        "school_name": "\u4f18\u4f18\u5728\u7ebf\u6559\u5b66\u8d44\u6e90"
    }, {
        "id": "159",
        "froms": "2",
        "name": "\u548c\u5668\u7269\u7528\u5177\u6709\u5173",
        "title": "\u548c\u5668\u7269\u7528\u5177\u6709\u5173\u7684\u6c49\u5b57\u662f\u600e\u4e48\u521b\u9020\u51fa\u6765\u7684\u5462\uff0c\u770b\u5b8c\u89c6\u9891\uff0c\u4f60\u5c31\u4f1a\u4e86\u89e3\u5f88\u591a\u4e86",
        "cate_id": "36",
        "cate_child": "37",
        "img": "http:\/\/w2.mamawozaizhe.com:9001\/video\/159\/1545061273.jpg",
        "subtime": "2018-12-17",
        "excellent": "0",
        "special": "0",
        "teacher_name": "\u5f18\u6bc5\u6559\u80b2",
        "school_name": "\u4f18\u4f18\u5728\u7ebf\u6559\u5b66\u8d44\u6e90"
    }, {
        "id": "158",
        "froms": "2",
        "name": "\u548c\u4eba\u7684\u8eab\u4f53\u6709\u5173",
        "title": "\u548c\u4eba\u7684\u8eab\u4f53\u6709\u5173\uff0c\u5171\u8ba151\u4e2a\u89c6\u9891\u3002",
        "cate_id": "36",
        "cate_child": "37",
        "img": "http:\/\/w2.mamawozaizhe.com:9001\/video\/158\/1545059112.jpg",
        "subtime": "2018-12-17",
        "excellent": "0",
        "special": "0",
        "teacher_name": "\u5f18\u6bc5\u6559\u80b2",
        "school_name": "\u4f18\u4f18\u5728\u7ebf\u6559\u5b66\u8d44\u6e90"
    }]
}