{
    "current_page": 1,
    "total": 29,
    "pages": 3,
    "per_page": 10,
    "data": [{
        "id": "33",
        "type": "0",
        "orders_id": "201812171201107559",
        "get_coin": "100",
        "complete_time": "2018-12-17 12:01:10",
        "status": "1"
    }, {
        "id": "32",
        "type": "0",
        "orders_id": "201812171200273601",
        "get_coin": "100",
        "complete_time": "2018-12-17 12:00:27",
        "status": "1"
    }, {
        "id": "30",
        "type": "0",
        "orders_id": "201812171155024960",
        "get_coin": "100",
        "complete_time": "2018-12-17 11:55:02",
        "status": "1"
    }, {
        "id": "26",
        "type": "0",
        "orders_id": "201812171153161609",
        "get_coin": "100",
        "complete_time": "2018-12-17 11:53:16",
        "status": "1"
    }, {
        "id": "22",
        "type": "0",
        "orders_id": "201812171146142620",
        "get_coin": "100",
        "complete_time": "2018-12-17 11:46:14",
        "status": "1"
    }, {
        "id": "21",
        "type": "0",
        "orders_id": "201812171146038022",
        "get_coin": "100",
        "complete_time": "2018-12-17 11:46:03",
        "status": "1"
    }, {
        "id": "20",
        "type": "0",
        "orders_id": "201812171145439647",
        "get_coin": "100",
        "complete_time": "2018-12-17 11:45:43",
        "status": "1"
    }, {
        "id": "19",
        "type": "0",
        "orders_id": "201812171132202765",
        "get_coin": "100",
        "complete_time": "2018-12-17 11:32:20",
        "status": "1"
    }, {
        "id": "18",
        "type": "0",
        "orders_id": "201812170950271306",
        "get_coin": "10000",
        "complete_time": "2018-12-17 09:50:27",
        "status": "1"
    }, {
        "id": "17",
        "type": "0",
        "orders_id": "201812170949152977",
        "get_coin": "100",
        "complete_time": "2018-12-17 09:49:15",
        "status": "1"
    }]
}